…
Below, we can see that DC has the highest concentration of Denny’s (29.2
per 1000 square miles), and Rhode Island has the highest concentration
of La Quinta (1.29 per 1000 square miles)

``` r
dennys_joined <- dennys %>%
  count(state) %>%
  inner_join(states, by = c("state" = "abbreviation")) %>%
  mutate(LocationsPerArea = n/(area/1000)) %>%
  arrange(desc(LocationsPerArea))
dennys_joined
```

    ## # A tibble: 51 × 5
    ##    state     n name                     area LocationsPerArea
    ##    <chr> <int> <chr>                   <dbl>            <dbl>
    ##  1 DC        2 District of Columbia     68.3           29.3  
    ##  2 RI        5 Rhode Island           1545.             3.24 
    ##  3 CA      403 California           163695.             2.46 
    ##  4 CT       12 Connecticut            5543.             2.16 
    ##  5 FL      140 Florida               65758.             2.13 
    ##  6 MD       26 Maryland              12406.             2.10 
    ##  7 NJ       10 New Jersey             8723.             1.15 
    ##  8 NY       56 New York              54555.             1.03 
    ##  9 IN       37 Indiana               36420.             1.02 
    ## 10 OH       44 Ohio                  44826.             0.982
    ## # … with 41 more rows

``` r
laquinta_joined <- laquinta %>%
  count(state) %>%
  inner_join(states, by = c("state" = "abbreviation")) %>%
  mutate(LocationsPerArea = n/(area/1000)) %>%
  arrange(desc(LocationsPerArea))
laquinta_joined
```

    ## # A tibble: 48 × 5
    ##    state     n name             area LocationsPerArea
    ##    <chr> <int> <chr>           <dbl>            <dbl>
    ##  1 RI        2 Rhode Island    1545.            1.29 
    ##  2 FL       74 Florida        65758.            1.13 
    ##  3 CT        6 Connecticut     5543.            1.08 
    ##  4 MD       13 Maryland       12406.            1.05 
    ##  5 TX      237 Texas         268596.            0.882
    ##  6 TN       30 Tennessee      42144.            0.712
    ##  7 GA       41 Georgia        59425.            0.690
    ##  8 NJ        5 New Jersey      8723.            0.573
    ##  9 MA        6 Massachusetts  10554.            0.568
    ## 10 LA       28 Louisiana      52378.            0.535
    ## # … with 38 more rows
…
